…
dynamite_reviews = bind_rows(
  read_page_reviews(vec_urls[1]),
  read_page_reviews(vec_urls[2]),
  read_page_reviews(vec_urls[3]),
  read_page_reviews(vec_urls[4]),
  read_page_reviews(vec_urls[5])
)

dynamite_reviews
```

    ## # A tibble: 50 x 3
    ##    title                               stars text                          
    ##    <chr>                               <dbl> <chr>                         
    ##  1 "Awesome\n            "                 5 Format: Prime VideoVerified P~
    ##  2 "Gotta watch it!\n            "         5 Format: Prime VideoVerified P~
    ##  3 "Great movie\n            "             5 Format: Blu-rayVerified Purch~
    ##  4 "Duh\n            "                     5 Format: Prime VideoVerified P~
    ##  5 "Great video\n            "             5 Format: DVDVerified Purchase  
    ##  6 "Give me some of your tots\n      ~     5 Format: Prime VideoVerified P~
    ##  7 "Nostalgic\n            "               5 Format: Prime VideoVerified P~
    ##  8 "Make you giggle type movie\n     ~     5 Format: Blu-rayVerified Purch~
    ##  9 "This movie is so stupid.\n       ~     5 Format: Prime VideoVerified P~
    ## 10 "Hilarious\n            "               5 Format: Prime VideoVerified P~
    ## # ... with 40 more rows
…
